<?xml version="1.0" encoding="utf-8"?>
<!-- Generator: Adobe Illustrator 19.0.0, SVG Export Plug-In . SVG Version: 6.00 Build 0)  -->
<svg version="1.1" id="Layer_1" xmlns="http://www.w3.org/2000/svg" xmlns:xlink="http://www.w3.org/1999/xlink" x="0px" y="0px"
	 width="176px" height="176px" viewBox="-285 332.9 176 176" style="enable-background:new -285 332.9 176 176;"
	 xml:space="preserve">
<g>
	<path id="path14" d="M-137.9,388.4c0.9-0.9,3.7-0.9,5.6-1.9c0.9-0.9,1.9-0.9,3.7-1.9l0,0c-0.9,0-1.9-0.9-2.8-1.9
		c-0.9-0.9,0-2.8,0.9-3.7c0.9-0.9,1.9-1.9,1.9-2.8c0-1.9-0.9-2.8-1.9-1.9c0,1.9-1.9,3.7-2.8,4.6c-1.9,2.8-4.6,3.7-4.6,6.5
		C-137.9,385.6-137.9,387.4-137.9,388.4C-138.8,388.4-137.9,388.4-137.9,388.4z M-195.3,408.7C-195.3,408.7-195.3,407.8-195.3,408.7
		c-4.6,0-9.3,1.9-13,3.7v-0.9c0-0.9,0-3.7,1.9-3.7c2.8,0,4.6-1.9,4.6-1.9s-5.6-0.9-4.6-2.8c0-0.9,0-0.9,0.9-0.9
		c1.9,0,2.8-0.9,2.8-0.9s-1.9-0.9-2.8-0.9c0,0,0,0,0-0.9l0.9-0.9c0.9,0.9,1.9,0.9,2.8,0.9l0,0c0-0.9-0.9-0.9-1.9-1.9
		c1.9-0.9,2.8-1.9,2.8-1.9s0,0-0.9,0c-1.9-0.9-1.9-5.6-2.8-7.4c0-0.9-1.9-1.9-2.8-2.8c-0.9,0-2.8,0-2.8-0.9
		c-0.9-0.9,0.9-7.4-6.5-7.4c-3.7,0-7.4,3.7-7.4,6.5c0,0.9,0,2.8,0,2.8s3.7-0.9,4.6,2.8c-0.9-0.9-1.9-1.9-2.8-1.9
		c-0.9,0-1.9,0.9-1.9,1.9c-0.9,3.7,2.8,6.5,2.8,7.4c0,6.5,2.8,11.1,2.8,17.6c0,3.7-2.8,5.6-2.8,5.6c-2.8,2.8-3.7,4.6-4.6,6.5
		c0-1.9,0.9-4.6,1.9-7.4c0,0,0-0.9,0,0c-0.9,0-3.7,1.9-4.6,2.8c-1.9,0.9-2.8,2.8-3.7,3.7c-1.9,0.9-4.6,1.9-7.4,3.7
		c-3.7,1.9-4.6,5.6-4.6,5.6s-2.8,0-7.4,0c-9.3,0.9-21.3,5.6-21.3,5.6h48.2C-224.1,428.2-208.3,412.5-195.3,408.7z M-212,389.3
		c0,0,0.9,0.9,2.8,0.9c1.9,0,2.8,0.9,2.8,0.9c0,3.7-1.9,5.6-2.8,5.6c0,0,0,0,0-0.9s0-0.9,0-1.9c-1.9,0-1.9-0.9-2.8-1.9l-0.9-0.9
		C-212.9,390.2-212,389.3-212,389.3z M-199,393C-199,393-198.1,393-199,393c0.9-0.9,1.9-0.9,1.9-1.9c0-0.9-0.9-1.9-2.8-1.9
		c-0.9,0-0.9,0-0.9,0.9c-0.9,0-0.9,1.9,0,1.9C-199.8,391.9-199,393-199,393z M-111,370.8c-0.9,0-1.9,0.9-1.9,1.9
		c0,0.9-0.9,1.9-0.9,2.8c-0.9,0.9-0.9,0.9-0.9,1.9c-0.9,0.9-0.9,1.9-0.9,1.9c-1.9,0-2.8,2.8-2.8,2.8c0-0.9,0.9-4.6,0.9-4.6
		c0-0.9,0-1.9,0-2.8s0-0.9,0-1.9v-2.1c-0.9,0-1.9,0.9-1.9,1.9c0,0.9,0,2.8,0,4.6c0,0.9,0,0.9-0.9,1.9c0,1.9-0.9,2.8-0.9,4.6
		c0-0.9,0.9-3.7,0.9-4.6s-0.9-5.6-0.9-5.6c0-0.9,0-0.9,0-0.9c-0.9,0-1.9,1.9-1.9,3.7c0,0.9,0.9,1.9,0.9,3.7c0,0.9,0,1.9-0.9,2.8
		c0,1.9,0,2.8,0,3.7c0-0.9,0-3.7,0-4.6c0-0.9-0.9-2.8-1.9-4.6c0-0.9-0.9-0.9-0.9-0.9c-1.9,0.9-1.9,2.8-1.9,3.7s0.9,1.9,0.9,2.8
		c-0.9,5.6-1.9,5.6-1.9,5.6s0,0-1.9,0.9c-2.8,0.9-6.5,1.9-8.3,0l0,0c0,0-3.7,2.8-5.6,4.6c-6.5,4.6-10.2,6.5-15.8,9.3
		c-5.6,9.3-11.1,12-17.6,13.9c-2.8,0.9-5.6,0.9-6.5-0.9c-0.9-3.7,3.7-5.6,7.4-6.5c0,0,0,0,0-0.9c-1.9-0.9-3.7-1.9-5.6-1.9
		c-17.6-0.9-34.3,20.4-32.4,32.4v0.9h17.6c2.8-2.8,5.6-5.6,7.4-9.3c0,0-4.6,0.9-8.3,0.9c0,0,5.6-0.9,13-6.5c13,3.7,24.1-13,27.8-7.4
		l0,0c10.2-7.4,13.9-15.8,21.3-22.2c2.8-2.8,3.7-3.7,9.3-5.6c1.9-0.9,1.9-0.9,1.9-1.9c0.9-0.9,1.9,0,2.8-1.9c0-0.9,0-1.9,1.9-1.9
		c1.9,0,1.9-1.9,2.8-2.8c1.9-1.9,1.9-1.9,2.8-3.7c0.9-0.9,2.8-3.7,2.8-4.6s0.9-2.8,1.9-4.6C-108.1,370.8-109,369.8-111,370.8
		L-111,370.8z"/>
	<path id="path18" d="M-225,471.8h11.1c0.9,0,1.9-0.9,1.9-1.9V469c-0.9,0-0.9,0-2.8,0h-3.7l6.5-12h-13v2.8h5.6l-5.6,10.2
		C-225,470.8-225,471.8-225,471.8"/>
	<path id="path20" d="M-236.1,464.3l2.8,5.6c0.9,0.9,1.9,1.9,3.7,1.9h3.7c0,0,0-0.9-0.9-1.9l-4.6-7.4l4.6-5.6h-3.7L-236.1,464.3z"/>
	<path id="path22" d="M-241.7,471.8h4.6v-17.6c0-1.9-0.9-2.8-2.8-2.8h-1.9v20.4H-241.7z"/>
	<path id="path24" d="M-243.5,470.8l-4.6-15.8c-0.9-1.9-0.9-2.8-3.7-2.8h-2.8l-7.4,19.5h2.8l1.9-4.6h6.5l0.9,2.8
		c0.9,1.9,1.9,1.9,2.8,1.9h4.6C-243.5,471.8-243.5,471.8-243.5,470.8z M-256.5,465.3l2.8-8.3l2.8,8.3H-256.5z"/>
	<path id="path26" d="M-203.7,472.7c4.6,0,7.4-2.8,7.4-8.3c0-4.6-3.7-7.4-7.4-7.4c-4.6,0-8.3,2.8-8.3,8.3
		C-211.1,469-207.4,472.7-203.7,472.7 M-202.7,469.9c-1.9,0-1.9-1.9-1.9-5.6c0-2.8,0.9-5.6,1.9-5.6s1.9,1.9,1.9,5.6
		C-200.7,468-201.8,469.9-202.7,469.9"/>
	<path id="path28" d="M-193.5,471.8h2.8v-12l8.3,10.2c0.9,1.9,1.9,2.8,2.8,2.8h1.9v-17.6c0-0.9-0.9-1.9-1.9-1.9h-0.9v12l-7.4-9.3
		c-0.9-1.9-1.9-2.8-3.7-2.8h-1.9V471.8L-193.5,471.8L-193.5,471.8z"/>
	<path id="path30" d="M-166.6,472.7c4.6,0,7.4-2.8,7.4-8.3c0-4.6-3.7-7.4-7.4-7.4c-4.6,0-8.3,2.8-8.3,8.3
		C-174,469-170.3,472.7-166.6,472.7 M-165.7,469.9c-1.9,0-1.9-1.9-1.9-5.6c0-2.8,0.9-5.6,1.9-5.6c1.9,0,1.9,1.9,1.9,5.6
		C-163.8,468-164.6,469.9-165.7,469.9"/>
	<path id="path32" d="M-124.9,464.3c0-0.9,0-0.9,0-1.9c0-3.7-2.8-6.5-7.4-6.5s-7.4,2.8-7.4,8.3c0,4.6,2.8,7.4,7.4,7.4
		s6.5-2.8,6.5-4.6c-0.9,0.9-2.8,0.9-4.6,0.9c-2.8,0-4.6-1.9-4.6-3.7h10L-124.9,464.3L-124.9,464.3z M-134.2,462.5
		c0-1.9,0.9-3.7,2.8-3.7c1.9,0,1.9,3.7,1.9,3.7H-134.2L-134.2,462.5z"/>
	<path id="path34" d="M-147,456.9c-1.9,0-2.8,0.9-3.7,1.9v-3.7c0-1.9-0.9-2.8-2.8-2.8h-1.9v19.5h5.6c5.6,0,9.3-2.8,9.3-8.3
		C-141.6,459.7-143.4,456.9-147,456.9L-147,456.9z M-149.9,469.9L-149.9,469.9l-0.9-9.3h0.9c1.9,0,3.7,1.9,3.7,4.6
		C-146.2,467.1-148.1,469.9-149.9,469.9z"/>
	<path id="path36" d="M-122.1,471.8h4.6v-17.6c0-1.9-0.9-2.8-2.8-2.8h-1.9v20.4H-122.1z"/>
	<g id="g84" transform="translate(-49.379002,-6.603265)">
		<rect id="rect86" x="-235.6" y="446.8" width="167.7" height="0.9"/>
	</g>
</g>
</svg>
