<?xml version="1.0" encoding="utf-8"?>
<!-- Generator: Adobe Illustrator 19.0.0, SVG Export Plug-In . SVG Version: 6.00 Build 0)  -->
<svg version="1.1" id="Layer_1" xmlns="http://www.w3.org/2000/svg" xmlns:xlink="http://www.w3.org/1999/xlink" x="0px" y="0px"
	 width="176px" height="176px" viewBox="-285 332.9 176 176" style="enable-background:new -285 332.9 176 176;"
	 xml:space="preserve">
<g>
	<path d="M-243.3,425.6c0-7.7,6.5-14.3,14.4-14.3c7.9,0,14.4,6.5,14.4,14.3s-6.5,14.3-14.4,14.3
		C-236.6,439.9-243.3,433.6-243.3,425.6L-243.3,425.6L-243.3,425.6L-243.3,425.6z M-228.7,432c3.5,0,6.5-2.8,6.5-6.3
		c0-3.5-3-6.3-6.5-6.3c-3.5,0-6.5,2.8-6.5,6.3C-235.2,429.2-232.4,432-228.7,432L-228.7,432L-228.7,432L-228.7,432z"/>
	<path d="M-146.7,401.9V439h37.7v-37.1H-146.7z M-123.4,435.7h-6.9v-24.1h-4.8v-4.4c0,0,4.2,0.7,5.3-2.3h6.3L-123.4,435.7
		L-123.4,435.7z"/>
	<polygon points="-285,401.9 -272.9,401.9 -266,424.9 -259,401.9 -247.3,401.9 -247.3,439 -255.1,439 -255.1,413.1 -262.8,439 
		-269.9,439 -277.1,413 -277.1,439 -285,439 	"/>
	<path d="M-196.1,411.6c-3,0-5.6,1.1-7.9,2.8v-12.3h-7.7v37h7.7v-1.8c2.3,1.8,5.1,2.8,7.9,2.8c7.6,0,13.6-6.5,13.6-14.3
		C-182.6,417.9-188.6,411.6-196.1,411.6z M-197,432.2c-3.5,0-6.5-2.8-6.5-6.3s3-6.3,6.5-6.3s6.5,2.8,6.5,6.3
		C-190.5,429.3-193.5,432.2-197,432.2z"/>
	<polygon points="-167.8,401.9 -160,401.9 -160,439 -167.8,439 	"/>
	<polygon points="-179.6,411.6 -171.8,411.6 -171.8,439 -179.6,439 	"/>
	<polygon points="-171.8,409.6 -171.8,401.7 -179.8,401.7 -179.8,409.6 	"/>
</g>
</svg>
