<?xml version="1.0" encoding="utf-8"?>
<!-- Generator: Adobe Illustrator 19.0.0, SVG Export Plug-In . SVG Version: 6.00 Build 0)  -->
<svg version="1.1" id="Layer_1" xmlns="http://www.w3.org/2000/svg" xmlns:xlink="http://www.w3.org/1999/xlink" x="0px" y="0px"
	 width="176px" height="176px" viewBox="-285 332.9 176 176" style="enable-background:new -285 332.9 176 176;"
	 xml:space="preserve">
<g>
	<path d="M-115.7,402.1c-0.4,0-169.3,0-169.3,0v37.5h19.5V416h149.9C-105.9,415.1-107.8,401.9-115.7,402.1z M-136.7,410.9h-128.8
		v-3.5c0,0,128.5,0,128.6,0C-134.9,407.9-134.9,410.2-136.7,410.9z"/>
	<path id="path3512" d="M-258.8,439.5h11.3v-20.2h-11.3V439.5z"/>
	<path d="M-215,432.9c5.6-2.8,5.3-13.9-3.5-13.6c-0.5,0-22.5,0-22.5,0v20.4h11.3v-6.3h2.8l3.5,6.2h13.6L-215,432.9z M-225.3,428.3
		c-0.4,0-4.4,0-4.4,0v-3.7h4.4C-221.3,424.4-221.3,428.3-225.3,428.3z"/>
	<path id="path3516" d="M-205.1,419.3v20.4h24.5v-5.3h-13v-2.8h11.6v-5.1h-11.6v-2.3h12.1V419L-205.1,419.3"/>
	<path id="path3518" d="M-174.7,419.3v20.4h22v-5.3h-10.6v-15.1H-174.7"/>
	<path id="path3520" d="M-149.7,419.3v20.4h22v-5.3h-10.6v-15.1H-149.7"/>
	<path id="path3522" d="M-124.5,439.5h11.3v-20.2h-11.3V439.5z"/>
</g>
</svg>
