<?xml version="1.0" encoding="utf-8"?>
<!-- Generator: Adobe Illustrator 18.1.1, SVG Export Plug-In . SVG Version: 6.00 Build 0)  -->
<svg version="1.1" id="Layer_1" xmlns="http://www.w3.org/2000/svg" xmlns:xlink="http://www.w3.org/1999/xlink" x="0px" y="0px"
	 width="237px" height="27px" viewBox="-118 37 237 27" enable-background="new -118 37 237 27" xml:space="preserve">
<line fill="none" stroke="#9C9B9B" stroke-width="0.7622" stroke-miterlimit="10" x1="30.6" y1="37" x2="30.6" y2="64"/>
<g>
	<path fill="#FFFFFF" d="M-42.8,54.7c0-0.5,0-1.6,0-2.1c0-2.4-1.5-3.7-4.8-3.7h-10.3v2.8h8.3c0.8,0,1.1,0.3,1.1,0.9v0.1
		c-0.7,0-5,0-6.6,0c-2.8,0-3.7,1.2-3.7,2.7c0,0.1,0,0.2,0,0.3c0,0.7,0.2,1.3,0.6,1.7c0.8,0.8,2.4,1,4.5,1c1.1,0,4.5,0,5.7,0
		C-44.3,58.4-42.8,57.5-42.8,54.7z M-49.4,55.6c-0.6,0-3.1,0-3.1,0c-0.5,0-0.9-0.2-0.9-0.6c0-0.4,0.2-0.7,0.9-0.7h4v0.4
		C-48.5,55.3-48.7,55.6-49.4,55.6z"/>
	<path fill="#FFFFFF" d="M-31.6,52.9c0,0.5,0,1.2,0,1.7c0,2.4,1.5,3.7,4.8,3.7h10.5v-2.7h-8.5c-0.8,0-1.1-0.3-1.1-0.9v-0.1
		c0.7,0,5,0,6.6,0c2.3,0,3.7-0.8,3.7-2.5c0-0.1,0-0.2,0-0.4c0-1.5-0.9-2.7-4.9-2.7c-1.1,0-4.7,0-5.9,0C-30,48.9-31.6,50.2-31.6,52.9
		z M-25,51.6c0.6,0,3.1,0,3.1,0c0.5,0,0.9,0.2,0.9,0.6c0,0.4-0.2,0.7-0.8,0.7h-4v-0.4C-25.8,52-25.6,51.6-25,51.6z"/>
	<path fill="#FFFFFF" d="M-32.3,49.1c0,0-4.5,0-7.4,0c-1.2,0-1.9,0.6-1.9,1.7c0,0.5,0,7.5,0,7.5h5.7v-6.4h3.6V49.1z"/>
	<polygon fill="#FFFFFF" points="-64.1,47.4 -69.8,47.4 -69.8,58.3 -59.6,58.3 -59.6,55.4 -64.1,55.4 	"/>
	<path fill="#FFFFFF" d="M-71.2,51.9c-2,0-7.2,0-7.5,0c-0.8,0-1.4,0.5-1.4,1.7c0,1.4,0.8,1.8,1.5,1.8c0.7,0,7.6,0,7.6,0v2.8
		c0,0-7.9,0-9.3,0c-3.9,0-5.6-1.2-5.6-4.2v-0.7c0-2.6,1.6-4.3,5.4-4.3c0,0,6.6,0,9.4,0V51.9z"/>
	<path fill="#FFFFFF" d="M-99,58.3l6.1-5.5l0,5.5h5.8V47.4c0,0-1.6,0-3.4,0c-1.4,0-2.4,0.6-3.3,1.4c-1.1,0.9-4.9,4.2-4.9,4.2v-5.6
		c0,0-1.5,0-3.4,0c-1.9,0-2.9,0.7-4,1.5c-0.7,0.6-12,9.4-12,9.4h6.8l6.8-5.6v5.6H-99z"/>
	<path fill="#FFFFFF" d="M-14.4,58.3v-9.2c0,0,9.1,0,9.1,0c4.6,0,6.2,0.9,6.2,4.2c0,1.5,0,5.1,0,5.1h-5.8c0,0,0-3.6,0-4.1
		c0-1.1-0.6-2.1-2.3-2.1c-0.4,0-1.5,0-1.5,0v6.2H-14.4z"/>
	<g>
		<path d="M2.8,54.2C31.4,35,6.7,35.5-11.7,47.4C-6.2,45.1,12.3,41.9,2.8,54.2z"/>
		<path fill="#E63027" d="M3.6,53.4c21.6-15.8,2-16.4-14.1-6.6C-6.4,45,12.1,41.5,3.6,53.4z"/>
		<path fill="#FFFFFF" d="M14.9,42.9c1.8-2.8-1.1-3.6-4.5-3.5C13.3,39.6,15.4,40.9,14.9,42.9z"/>
	</g>
</g>
<g>
	<path fill="#9C9B9B" d="M62.3,43v15.3h-0.9V44.5l-7.1,13.7h-1l-7.1-13.7v13.7h-0.9V43h1l7.4,14.3L61.3,43H62.3z"/>
	<path fill="#9C9B9B" d="M67.2,43.8v5.4h11.2v0.9H67.2v7.3h11.4v0.9H66.3V43h12.3v0.9H67.2z"/>
	<path fill="#9C9B9B" d="M93.8,58.2H82.2V43h11.6c0.8,0,1.6,0.1,2.1,0.6c0.5,0.4,0.6,0.9,0.6,1.6V56c0,0.8-0.1,1.2-0.6,1.6
		C95.3,58.1,94.6,58.2,93.8,58.2z M93.8,57.4c0.8,0,1.2-0.1,1.5-0.4c0.2-0.2,0.3-0.4,0.3-1V45.2c0-0.6-0.1-0.8-0.3-1
		c-0.3-0.3-0.7-0.4-1.5-0.4H83v13.5H93.8z"/>
	<path fill="#9C9B9B" d="M100.3,58.2V43h0.9v15.3H100.3z"/>
	<path fill="#9C9B9B" d="M116.2,54.3h-9.8l-1.9,4h-1l7.2-15.3h1.1l7.2,15.3h-1L116.2,54.3z M115.8,53.4l-4.5-9.5l-4.5,9.5H115.8z"/>
</g>
</svg>
