<?xml version="1.0" encoding="utf-8"?>
<!-- Generator: Adobe Illustrator 16.0.0, SVG Export Plug-In . SVG Version: 6.00 Build 0)  -->
<!DOCTYPE svg PUBLIC "-//W3C//DTD SVG 1.1//EN" "http://www.w3.org/Graphics/SVG/1.1/DTD/svg11.dtd">
<svg version="1.1" id="Layer_1" xmlns="http://www.w3.org/2000/svg" xmlns:xlink="http://www.w3.org/1999/xlink" x="0px" y="0px"
	 width="6.75px" height="11.556px" viewBox="0 0 6.75 11.556" enable-background="new 0 0 6.75 11.556" xml:space="preserve">
<path fill="#AEAEAE" d="M0.285,0.286c-0.38,0.379-0.38,0.996,0,1.375l4.115,4.118L0.285,9.895c-0.379,0.38-0.38,0.996,0,1.376
	s0.996,0.38,1.377,0L6.458,6.47C6.46,6.468,6.462,6.468,6.464,6.466c0.189-0.189,0.285-0.439,0.285-0.688l0,0
	c0-0.002,0-0.002,0-0.002c0-0.248-0.096-0.498-0.285-0.688C6.462,5.087,6.458,5.085,6.456,5.083L1.661,0.286
	C1.281-0.095,0.665-0.095,0.285,0.286z"/>
</svg>
