<?xml version="1.0" encoding="utf-8"?>
<!-- Generator: Adobe Illustrator 16.0.0, SVG Export Plug-In . SVG Version: 6.00 Build 0)  -->
<!DOCTYPE svg PUBLIC "-//W3C//DTD SVG 1.1//EN" "http://www.w3.org/Graphics/SVG/1.1/DTD/svg11.dtd">
<svg version="1.1" id="Layer_1" xmlns="http://www.w3.org/2000/svg" xmlns:xlink="http://www.w3.org/1999/xlink" x="0px" y="0px"
	 width="11.556px" height="6.781px" viewBox="0.038 0.219 11.556 6.781" enable-background="new 0.038 0.219 11.556 6.781"
	 xml:space="preserve">
<path fill="#E0610E" d="M11.309,0.504c-0.38-0.38-0.996-0.38-1.376,0L5.816,4.619L1.699,0.504c-0.38-0.379-0.996-0.379-1.376,0
	s-0.38,0.996,0,1.376l4.801,4.796C5.126,6.68,5.126,6.682,5.128,6.684c0.19,0.19,0.439,0.285,0.688,0.285l0,0
	c0.001,0,0.001,0,0.002,0c0.248,0,0.498-0.095,0.688-0.285c0.002-0.002,0.003-0.005,0.005-0.007l4.798-4.796
	C11.688,1.5,11.688,0.884,11.309,0.504z"/>
</svg>
