<?xml version="1.0" encoding="utf-8"?>
<!-- Generator: Adobe Illustrator 16.0.0, SVG Export Plug-In . SVG Version: 6.00 Build 0)  -->
<!DOCTYPE svg PUBLIC "-//W3C//DTD SVG 1.1//EN" "http://www.w3.org/Graphics/SVG/1.1/DTD/svg11.dtd">
<svg version="1.1" id="Layer_1" xmlns="http://www.w3.org/2000/svg" xmlns:xlink="http://www.w3.org/1999/xlink" x="0px" y="0px"
	 width="14.028px" height="24px" viewBox="-0.014 0 14.028 24" enable-background="new -0.014 0 14.028 24" xml:space="preserve">
<path fill="#FFFFFF" d="M2.413,12L13.721,1.574c0.391-0.36,0.391-0.943,0-1.304c-0.391-0.36-1.023-0.36-1.414,0L0.368,11.277
	c-0.029,0.021-0.065,0.031-0.092,0.057C0.077,11.518-0.018,11.76-0.014,12c-0.004,0.24,0.091,0.482,0.29,0.666
	c0.027,0.025,0.063,0.035,0.093,0.057l11.938,11.007c0.391,0.36,1.023,0.36,1.414,0c0.195-0.18,0.293-0.416,0.293-0.651
	c0-0.236-0.098-0.472-0.293-0.652L2.413,12z"/>
</svg>
