<?xml version="1.0" encoding="utf-8"?>
<!-- Generator: Adobe Illustrator 16.0.0, SVG Export Plug-In . SVG Version: 6.00 Build 0)  -->
<!DOCTYPE svg PUBLIC "-//W3C//DTD SVG 1.1//EN" "http://www.w3.org/Graphics/SVG/1.1/DTD/svg11.dtd">
<svg version="1.1" id="Layer_1" xmlns="http://www.w3.org/2000/svg" xmlns:xlink="http://www.w3.org/1999/xlink" x="0px" y="0px"
	 width="12px" height="17px" viewBox="0 0 12 17" enable-background="new 0 0 12 17" xml:space="preserve">
<path fill="#808080" d="M8.9,0H0v17h12V3.3L8.9,0z M8.9,1.5L10.8,3H8.9V1.5z M1,16V1h7v3h3v12H1z"/>
<path fill="#808080" d="M2,6.1v1h8v-1H2z"/>
<path fill="#808080" d="M2,10h8V9H2V10z"/>
<path fill="#808080" d="M2,13h8v-1H2V13z"/>
</svg>
