<?xml version="1.0" encoding="utf-8"?>
<!-- Generator: Adobe Illustrator 18.1.1, SVG Export Plug-In . SVG Version: 6.00 Build 0)  -->
<!DOCTYPE svg PUBLIC "-//W3C//DTD SVG 1.1//EN" "http://www.w3.org/Graphics/SVG/1.1/DTD/svg11.dtd">
<svg version="1.1" id="Layer_1" xmlns="http://www.w3.org/2000/svg" xmlns:xlink="http://www.w3.org/1999/xlink" x="0px" y="0px"
	 width="35px" height="35px" viewBox="0 0 35 35" enable-background="new 0 0 35 35" xml:space="preserve">
<path opacity="0.5" fill="#231F20" d="M17.5,0C27.2,0,35,7.8,35,17.5C35,27.2,27.2,35,17.5,35C7.8,35,0,27.2,0,17.5
	C0,7.8,7.8,0,17.5,0z"/>
<path fill="#FFFFFF" d="M10.4,16.2l7.3,9l6.9-9h-3.9V9.8h-6.4v6.5H10.4z"/>
</svg>
