<?xml version="1.0" encoding="utf-8"?>
<!-- Generator: Adobe Illustrator 16.0.0, SVG Export Plug-In . SVG Version: 6.00 Build 0)  -->
<!DOCTYPE svg PUBLIC "-//W3C//DTD SVG 1.1//EN" "http://www.w3.org/Graphics/SVG/1.1/DTD/svg11.dtd">
<svg version="1.1" id="Layer_1" xmlns="http://www.w3.org/2000/svg" xmlns:xlink="http://www.w3.org/1999/xlink" x="0px" y="0px"
	 width="18px" height="18px" viewBox="0 0 18 18" enable-background="new 0 0 18 18" xml:space="preserve">
<path fill="#E0610E" d="M12.1,2C10.7,0.8,8.9,0,7.1,0C5.2,0,3.4,0.8,2,2C0.8,3.4,0,5.2,0,7.1s0.8,3.6,2,4.9c1.4,1.3,3.2,2,5,2
	c1.9,0,3.7-0.8,5-2C14.9,9.3,14.9,4.8,12.1,2z M7.1,1.6C8.6,1.6,9.9,2.2,10.9,3.2c2.1,2.1,2.1,5.6,0,7.8c-1,1-2.4,1.6-3.801,1.6
	C5.7,12.6,4.3,12,3.3,11C1.1,8.8,1.1,5.3,3.2,3.3C4.3,2.1,5.6,1.6,7.1,1.6z"/>
<polygon fill="#E0610E" points="12.3,13.9 13.9,12.4 18,16.5 16.5,18 "/>
</svg>
