<?xml version="1.0" encoding="utf-8"?>
<!-- Generator: Adobe Illustrator 16.0.0, SVG Export Plug-In . SVG Version: 6.00 Build 0)  -->
<!DOCTYPE svg PUBLIC "-//W3C//DTD SVG 1.1//EN" "http://www.w3.org/Graphics/SVG/1.1/DTD/svg11.dtd">
<svg version="1.1" id="Layer_1" xmlns="http://www.w3.org/2000/svg" xmlns:xlink="http://www.w3.org/1999/xlink" x="0px" y="0px"
	 width="27px" height="15px" viewBox="0 0 27 15" enable-background="new 0 0 27 15" xml:space="preserve">
<rect fill="#FFFFFF" width="27" height="15"/>
<rect fill="#3C3B6E" width="11.3999023" height="8.0761719"/>
<polygon fill="#FFFFFF" points="1.1430664,0.8530273 1.4150391,0.6547852 1.0791016,0.6547852 0.9750977,0.3359375 
	0.8720703,0.6547852 0.5361328,0.6547852 0.8071289,0.8530273 0.7041016,1.171875 0.9750977,0.9750977 1.2470703,1.171875 "/>
<polygon fill="#FFFFFF" points="3.0332031,0.8530273 3.3051758,0.6547852 2.96875,0.6547852 2.8652344,0.3359375 
	2.7607422,0.6547852 2.4257812,0.6547852 2.6967773,0.8530273 2.5927734,1.171875 2.8652344,0.9750977 3.137207,1.171875 "/>
<polygon fill="#FFFFFF" points="4.9228516,0.8530273 5.1948242,0.6547852 4.8588867,0.6547852 4.7548828,0.3359375 
	4.6508789,0.6547852 4.315918,0.6547852 4.5869141,0.8530273 4.4829102,1.171875 4.7548828,0.9750977 5.0268555,1.171875 "/>
<polygon fill="#FFFFFF" points="7.0849609,0.6547852 6.7490234,0.6547852 6.6450195,0.3359375 6.5410156,0.6547852 
	6.2060547,0.6547852 6.4780273,0.8530273 6.3740234,1.171875 6.6450195,0.9750977 6.9169922,1.171875 6.8129883,0.8530273 "/>
<polygon fill="#FFFFFF" points="8.703125,0.8530273 8.9750977,0.6547852 8.6391602,0.6547852 8.5351562,0.3359375 
	8.4321289,0.6547852 8.0961914,0.6547852 8.3671875,0.8530273 8.2641602,1.171875 8.5351562,0.9750977 8.8071289,1.171875 "/>
<polygon fill="#FFFFFF" points="10.5927734,0.8530273 10.8642578,0.6547852 10.5288086,0.6547852 10.4248047,0.3359375 
	10.3217773,0.6547852 9.9858398,0.6547852 10.2568359,0.8530273 10.152832,1.171875 10.4248047,0.9750977 10.6958008,1.171875 "/>
<polygon fill="#FFFFFF" points="2.0878906,1.6630859 2.3588867,1.4648438 2.0229492,1.4648438 1.9199219,1.1459961 
	1.815918,1.4648438 1.480957,1.4648438 1.7519531,1.6630859 1.6479492,1.9819336 1.9199219,1.7851562 2.1918945,1.9819336 "/>
<polygon fill="#FFFFFF" points="3.9780273,1.6630859 4.25,1.4648438 3.9140625,1.4648438 3.8110352,1.1459961 3.7070312,1.4648438 
	3.3710938,1.4648438 3.6430664,1.6630859 3.5390625,1.9819336 3.8110352,1.7851562 4.0820312,1.9819336 "/>
<polygon fill="#FFFFFF" points="5.8681641,1.6630859 6.1401367,1.4648438 5.8041992,1.4648438 5.7001953,1.1459961 
	5.597168,1.4648438 5.2597656,1.4648438 5.5322266,1.6630859 5.4291992,1.9819336 5.7001953,1.7851562 5.972168,1.9819336 "/>
<polygon fill="#FFFFFF" points="7.7578125,1.6630859 8.0288086,1.4648438 7.6938477,1.4648438 7.5898438,1.1459961 
	7.4858398,1.4648438 7.1499023,1.4648438 7.421875,1.6630859 7.3178711,1.9819336 7.5898438,1.7851562 7.8618164,1.9819336 "/>
<polygon fill="#FFFFFF" points="9.6479492,1.6630859 9.9189453,1.4648438 9.5839844,1.4648438 9.4799805,1.1459961 
	9.3759766,1.4648438 9.0410156,1.4648438 9.3120117,1.6630859 9.2080078,1.9819336 9.4799805,1.7851562 9.7519531,1.9819336 "/>
<path fill="#FFFFFF" d="M1.1430664,2.4731445l0.2709961-0.1972656H1.0791016L0.9750977,1.9570312L0.8720703,2.2758789H0.5361328
	l0.2709961,0.1972656L0.7041016,2.7919922l0.2709961-0.1967773l0.2719727,0.1967773L1.1430664,2.4731445z M0.9750977,2.4179688
	L0.9750977,2.4179688L0.9750977,2.4179688L0.9750977,2.4179688L0.9750977,2.4179688z"/>
<path fill="#FFFFFF" d="M3.0332031,2.4731445l0.2709961-0.1972656H2.96875L2.8652344,1.9570312L2.7607422,2.2758789H2.4257812
	l0.2709961,0.1972656L2.5927734,2.7919922l0.2724609-0.1967773L3.137207,2.7919922L3.0332031,2.4731445z M2.8652344,2.4179688
	L2.8652344,2.4179688L2.8652344,2.4179688L2.8652344,2.4179688L2.8652344,2.4179688z"/>
<path fill="#FFFFFF" d="M4.9228516,2.4731445l0.2719727-0.1972656H4.8588867L4.7548828,1.9570312L4.6508789,2.2758789H4.315918
	l0.2709961,0.1972656L4.4829102,2.7919922l0.2709961-0.1967773l0.2719727,0.1967773L4.9228516,2.4731445z M4.7548828,2.4179688
	L4.7548828,2.4179688L4.7548828,2.4179688L4.7548828,2.4179688L4.7548828,2.4179688z"/>
<path fill="#FFFFFF" d="M6.8129883,2.4731445l0.2719727-0.1972656H6.7490234L6.6450195,1.9570312L6.5410156,2.2758789H6.2060547
	l0.2719727,0.1972656L6.3740234,2.7919922l0.2709961-0.1967773l0.2709961,0.1967773L6.8129883,2.4731445z M6.6450195,2.4179688
	L6.6450195,2.4179688L6.6450195,2.4179688L6.6450195,2.4179688L6.6450195,2.4179688z"/>
<path fill="#FFFFFF" d="M8.703125,2.4731445l0.2719727-0.1972656H8.6391602L8.5351562,1.9570312L8.4321289,2.2758789H8.0961914
	l0.2709961,0.1972656L8.2641602,2.7919922l0.2709961-0.1967773l0.2709961,0.1967773L8.703125,2.4731445z M8.5351562,2.4179688
	L8.5351562,2.4179688L8.5351562,2.4179688L8.5351562,2.4179688L8.5351562,2.4179688z"/>
<path fill="#FFFFFF" d="M10.5927734,2.4731445l0.2714844-0.1972656h-0.3354492l-0.1040039-0.3188477l-0.1040039,0.3188477H9.9858398
	l0.2709961,0.1972656L10.152832,2.7919922l0.2719727-0.1967773l0.2709961,0.1967773L10.5927734,2.4731445z M10.4248047,2.4179688
	L10.4248047,2.4179688L10.4248047,2.4179688L10.4248047,2.4179688L10.4248047,2.4179688z"/>
<polygon fill="#FFFFFF" points="2.0888672,3.2832031 2.3608398,3.0859375 2.0239258,3.0859375 1.9208984,2.7670898 
	1.8168945,3.0859375 1.4819336,3.0859375 1.7529297,3.2832031 1.6499023,3.6030273 1.9208984,3.4047852 2.1918945,3.6030273 "/>
<polygon fill="#FFFFFF" points="3.9790039,3.2832031 4.25,3.0859375 3.9150391,3.0859375 3.8120117,2.7670898 3.7080078,3.0859375 
	3.3720703,3.0859375 3.644043,3.2832031 3.5400391,3.6030273 3.8120117,3.4047852 4.0830078,3.6030273 "/>
<polygon fill="#FFFFFF" points="5.8691406,3.2832031 6.1401367,3.0859375 5.8051758,3.0859375 5.7011719,2.7670898 
	5.5981445,3.0859375 5.2607422,3.0859375 5.5332031,3.2832031 5.4291992,3.6030273 5.7011719,3.4047852 5.9731445,3.6030273 "/>
<polygon fill="#FFFFFF" points="7.7587891,3.2832031 8.0297852,3.0859375 7.6948242,3.0859375 7.5908203,2.7670898 
	7.4868164,3.0859375 7.1508789,3.0859375 7.4228516,3.2832031 7.3188477,3.6030273 7.5908203,3.4047852 7.862793,3.6030273 "/>
<polygon fill="#FFFFFF" points="9.6489258,3.2832031 9.9199219,3.0859375 9.5839844,3.0859375 9.480957,2.7670898 
	9.3769531,3.0859375 9.0419922,3.0859375 9.3129883,3.2832031 9.2089844,3.6030273 9.480957,3.4047852 9.7529297,3.6030273 "/>
<path fill="#FFFFFF" d="M1.1450195,4.0927734l0.2709961-0.1967773H1.0800781L0.9760742,3.5771484L0.8730469,3.8959961H0.5371094
	l0.2709961,0.1967773L0.7050781,4.4121094l0.2709961-0.1972656l0.2709961,0.1972656L1.1450195,4.0927734z M0.9760742,4.0390625
	L0.9760742,4.0390625L0.9760742,4.0390625L0.9760742,4.0390625L0.9760742,4.0390625z"/>
<path fill="#FFFFFF" d="M3.0341797,4.0927734l0.2709961-0.1967773H2.9702148L2.8662109,3.5771484L2.762207,3.8959961H2.4267578
	l0.2714844,0.1967773L2.59375,4.4121094l0.2724609-0.1972656L3.137207,4.4121094L3.0341797,4.0927734z M2.8662109,4.0390625
	L2.8662109,4.0390625L2.8662109,4.0390625L2.8662109,4.0390625L2.8662109,4.0390625z"/>
<path fill="#FFFFFF" d="M4.9238281,4.0927734l0.2719727-0.1967773H4.8598633L4.7558594,3.5771484L4.6518555,3.8959961H4.3168945
	l0.2709961,0.1967773L4.4838867,4.4121094l0.2709961-0.1972656l0.2719727,0.1972656L4.9238281,4.0927734z M4.7558594,4.0390625
	L4.7558594,4.0390625L4.7558594,4.0390625L4.7558594,4.0390625L4.7558594,4.0390625z"/>
<path fill="#FFFFFF" d="M6.8139648,4.0927734l0.2709961-0.1967773H6.75L6.6459961,3.5771484L6.5419922,3.8959961H6.2070312
	l0.2719727,0.1967773L6.375,4.4121094l0.2709961-0.1972656l0.2709961,0.1972656L6.8139648,4.0927734z M6.6459961,4.0390625
	L6.6459961,4.0390625L6.6459961,4.0390625L6.6459961,4.0390625L6.6459961,4.0390625z"/>
<path fill="#FFFFFF" d="M8.7041016,4.0927734l0.2719727-0.1967773H8.6401367L8.5361328,3.5771484L8.4331055,3.8959961H8.097168
	l0.2709961,0.1967773L8.2651367,4.4121094l0.2709961-0.1972656l0.2709961,0.1972656L8.7041016,4.0927734z M8.5361328,4.0390625
	L8.5361328,4.0390625L8.5361328,4.0390625L8.5361328,4.0390625L8.5361328,4.0390625z"/>
<path fill="#FFFFFF" d="M10.59375,4.0927734l0.2714844-0.1967773h-0.3354492l-0.1040039-0.3188477l-0.1040039,0.3188477H9.9868164
	l0.2709961,0.1967773l-0.1040039,0.3193359l0.2719727-0.1972656l0.2709961,0.1972656L10.59375,4.0927734z M10.4257812,4.0390625
	L10.4257812,4.0390625L10.4257812,4.0390625L10.4257812,4.0390625L10.4257812,4.0390625z"/>
<polygon fill="#FFFFFF" points="2.0878906,4.902832 2.3588867,4.7070312 2.0229492,4.7070312 1.9199219,4.387207 
	1.815918,4.7070312 1.480957,4.7070312 1.7519531,4.902832 1.6479492,5.2231445 1.9199219,5.0249023 2.1918945,5.2231445 "/>
<polygon fill="#FFFFFF" points="3.9780273,4.902832 4.25,4.7070312 3.9140625,4.7070312 3.8110352,4.387207 3.7070312,4.7070312 
	3.3710938,4.7070312 3.6430664,4.902832 3.5390625,5.2231445 3.8110352,5.0249023 4.0820312,5.2231445 "/>
<polygon fill="#FFFFFF" points="5.8681641,4.902832 6.1401367,4.7070312 5.8041992,4.7070312 5.7001953,4.387207 
	5.597168,4.7070312 5.2597656,4.7070312 5.5322266,4.902832 5.4291992,5.2231445 5.7001953,5.0249023 5.972168,5.2231445 "/>
<polygon fill="#FFFFFF" points="7.7578125,4.902832 8.0288086,4.7070312 7.6938477,4.7070312 7.5898438,4.387207 
	7.4858398,4.7070312 7.1499023,4.7070312 7.421875,4.902832 7.3178711,5.2231445 7.5898438,5.0249023 7.8618164,5.2231445 "/>
<polygon fill="#FFFFFF" points="9.6479492,4.902832 9.9189453,4.7070312 9.5839844,4.7070312 9.4799805,4.387207 
	9.3759766,4.7070312 9.0410156,4.7070312 9.3120117,4.902832 9.2080078,5.2231445 9.4799805,5.0249023 9.7519531,5.2231445 "/>
<path fill="#FFFFFF" d="M1.1430664,5.7138672l0.2709961-0.1977539H1.0791016L0.9750977,5.1967773L0.8720703,5.5161133H0.5361328
	l0.2709961,0.1977539L0.7041016,6.0332031l0.2709961-0.1972656l0.2719727,0.1972656L1.1430664,5.7138672z M0.9750977,5.6591797
	L0.9750977,5.6591797L0.9750977,5.6591797L0.9750977,5.6591797L0.9750977,5.6591797z"/>
<path fill="#FFFFFF" d="M3.0332031,5.7138672l0.2709961-0.1977539H2.96875L2.8652344,5.1967773L2.7607422,5.5161133H2.4257812
	l0.2709961,0.1977539L2.5927734,6.0332031l0.2724609-0.1972656L3.137207,6.0332031L3.0332031,5.7138672z M2.8652344,5.6591797
	L2.8652344,5.6591797L2.8652344,5.6591797L2.8652344,5.6591797L2.8652344,5.6591797z"/>
<path fill="#FFFFFF" d="M4.9228516,5.7138672l0.2719727-0.1977539H4.8588867L4.7548828,5.1967773L4.6508789,5.5161133H4.315918
	l0.2709961,0.1977539L4.4829102,6.0332031l0.2709961-0.1972656l0.2719727,0.1972656L4.9228516,5.7138672z M4.7548828,5.6591797
	L4.7548828,5.6591797L4.7548828,5.6591797L4.7548828,5.6591797L4.7548828,5.6591797z"/>
<path fill="#FFFFFF" d="M6.8129883,5.7138672l0.2719727-0.1977539H6.7490234L6.6450195,5.1967773L6.5410156,5.5161133H6.2060547
	l0.2719727,0.1977539L6.3740234,6.0332031l0.2709961-0.1972656l0.2709961,0.1972656L6.8129883,5.7138672z M6.6450195,5.6591797
	L6.6450195,5.6591797L6.6450195,5.6591797L6.6450195,5.6591797L6.6450195,5.6591797z"/>
<path fill="#FFFFFF" d="M8.703125,5.7138672l0.2719727-0.1977539H8.6391602L8.5351562,5.1967773L8.4321289,5.5161133H8.0961914
	l0.2709961,0.1977539L8.2641602,6.0332031l0.2709961-0.1972656l0.2709961,0.1972656L8.703125,5.7138672z M8.5351562,5.6591797
	L8.5351562,5.6591797L8.5351562,5.6591797L8.5351562,5.6591797L8.5351562,5.6591797z"/>
<path fill="#FFFFFF" d="M10.5927734,5.7138672l0.2714844-0.1977539h-0.3354492l-0.1040039-0.3193359l-0.1040039,0.3193359H9.9858398
	l0.2709961,0.1977539L10.152832,6.0332031l0.2719727-0.1972656l0.2709961,0.1972656L10.5927734,5.7138672z M10.4248047,5.6591797
	L10.4248047,5.6591797L10.4248047,5.6591797L10.4248047,5.6591797L10.4248047,5.6591797z"/>
<polygon fill="#FFFFFF" points="2.0888672,6.5239258 2.3608398,6.3271484 2.0239258,6.3271484 1.9208984,6.0068359 
	1.8168945,6.3271484 1.4819336,6.3271484 1.7529297,6.5239258 1.6499023,6.8427734 1.9208984,6.6459961 2.1918945,6.8427734 "/>
<polygon fill="#FFFFFF" points="3.9790039,6.5239258 4.25,6.3271484 3.9150391,6.3271484 3.8120117,6.0068359 3.7080078,6.3271484 
	3.3720703,6.3271484 3.644043,6.5239258 3.5400391,6.8427734 3.8120117,6.6459961 4.0830078,6.8427734 "/>
<polygon fill="#FFFFFF" points="5.8691406,6.5239258 6.1401367,6.3271484 5.8051758,6.3271484 5.7011719,6.0068359 
	5.5981445,6.3271484 5.2607422,6.3271484 5.5332031,6.5239258 5.4291992,6.8427734 5.7011719,6.6459961 5.9731445,6.8427734 "/>
<polygon fill="#FFFFFF" points="7.7587891,6.5239258 8.0297852,6.3271484 7.6948242,6.3271484 7.5908203,6.0068359 
	7.4868164,6.3271484 7.1508789,6.3271484 7.4228516,6.5239258 7.3188477,6.8427734 7.5908203,6.6459961 7.862793,6.8427734 "/>
<polygon fill="#FFFFFF" points="9.6489258,6.5239258 9.9199219,6.3271484 9.5839844,6.3271484 9.480957,6.0068359 
	9.3769531,6.3271484 9.0419922,6.3271484 9.3129883,6.5239258 9.2089844,6.8427734 9.480957,6.6459961 9.7529297,6.8427734 "/>
<path fill="#FFFFFF" d="M1.1450195,7.3339844L1.4160156,7.137207H1.0800781L0.9760742,6.8168945L0.8730469,7.137207H0.5371094
	l0.2709961,0.1967773L0.7050781,7.652832l0.2709961-0.1967773L1.2470703,7.652832L1.1450195,7.3339844z M0.9760742,7.2788086
	L0.9760742,7.2788086L0.9760742,7.2788086L0.9760742,7.2788086L0.9760742,7.2788086z"/>
<path fill="#FFFFFF" d="M3.0341797,7.3339844L3.3051758,7.137207H2.9702148L2.8662109,6.8168945L2.762207,7.137207H2.4267578
	l0.2714844,0.1967773L2.59375,7.652832l0.2724609-0.1967773L3.137207,7.652832L3.0341797,7.3339844z M2.8662109,7.2788086
	L2.8662109,7.2788086L2.8662109,7.2788086L2.8662109,7.2788086L2.8662109,7.2788086z"/>
<path fill="#FFFFFF" d="M4.9238281,7.3339844L5.1958008,7.137207H4.8598633L4.7558594,6.8168945L4.6518555,7.137207H4.3168945
	l0.2709961,0.1967773L4.4838867,7.652832l0.2709961-0.1967773L5.0268555,7.652832L4.9238281,7.3339844z M4.7558594,7.2788086
	L4.7558594,7.2788086L4.7558594,7.2788086L4.7558594,7.2788086L4.7558594,7.2788086z"/>
<path fill="#FFFFFF" d="M6.8139648,7.3339844L7.0849609,7.137207H6.75L6.6459961,6.8168945L6.5419922,7.137207H6.2070312
	l0.2719727,0.1967773L6.375,7.652832l0.2709961-0.1967773L6.9169922,7.652832L6.8139648,7.3339844z M6.6459961,7.2788086
	L6.6459961,7.2788086L6.6459961,7.2788086L6.6459961,7.2788086L6.6459961,7.2788086z"/>
<path fill="#FFFFFF" d="M8.7041016,7.3339844L8.9760742,7.137207H8.6401367L8.5361328,6.8168945L8.4331055,7.137207H8.097168
	l0.2709961,0.1967773L8.2651367,7.652832l0.2709961-0.1967773L8.8071289,7.652832L8.7041016,7.3339844z M8.5361328,7.2788086
	L8.5361328,7.2788086L8.5361328,7.2788086L8.5361328,7.2788086L8.5361328,7.2788086z"/>
<path fill="#FFFFFF" d="M10.59375,7.3339844l0.2714844-0.1967773h-0.3354492l-0.1040039-0.3193359L10.3217773,7.137207H9.9868164
	l0.2709961,0.1967773L10.1538086,7.652832l0.2719727-0.1967773l0.2709961,0.1967773L10.59375,7.3339844z M10.4257812,7.2788086
	L10.4257812,7.2788086L10.4257812,7.2788086L10.4257812,7.2788086L10.4257812,7.2788086z"/>
<rect x="11.3999023" fill="#B22234" width="15.6000977" height="1.152832"/>
<rect x="11.3999023" y="2.3081055" fill="#B22234" width="15.6000977" height="1.1538086"/>
<rect x="11.3999023" y="4.6152344" fill="#B22234" width="15.6000977" height="1.1538086"/>
<rect x="11.3999023" y="6.9228516" fill="#B22234" width="15.6000977" height="1.1533203"/>
<rect y="9.2304688" fill="#B22234" width="27" height="1.1533203"/>
<rect y="11.5380859" fill="#B22234" width="27" height="1.1533203"/>
<rect y="13.8457031" fill="#B22234" width="27" height="1.1542969"/>
</svg>
