<?xml version="1.0" encoding="utf-8"?>
<!-- Generator: Adobe Illustrator 16.0.0, SVG Export Plug-In . SVG Version: 6.00 Build 0)  -->
<!DOCTYPE svg PUBLIC "-//W3C//DTD SVG 1.1//EN" "http://www.w3.org/Graphics/SVG/1.1/DTD/svg11.dtd">
<svg version="1.1" id="Layer_1" xmlns="http://www.w3.org/2000/svg" xmlns:xlink="http://www.w3.org/1999/xlink" x="0px" y="0px"
	 width="27px" height="15px" viewBox="0 0 27 15" enable-background="new 0 0 27 15" xml:space="preserve">
<g>
	<rect id="black_stripe" width="27" height="15"/>
	<rect id="red_stripe" y="5" fill="#DD0000" width="27" height="10"/>
	<rect id="gold_stripe" y="10" fill="#FFCE00" width="27" height="5"/>
</g>
</svg>
