<?xml version="1.0" encoding="utf-8"?>
<!-- Generator: Adobe Illustrator 19.1.0, SVG Export Plug-In . SVG Version: 6.00 Build 0)  -->
<svg version="1.2" baseProfile="tiny" id="Layer_1" xmlns="http://www.w3.org/2000/svg" xmlns:xlink="http://www.w3.org/1999/xlink"
	 x="0px" y="0px" width="14px" height="3px" viewBox="0 0 14 3" xml:space="preserve">
<g>
	<g>
		<path fill="#FFFFFF" d="M12.5,3H1.5C0.7,3,0,2.3,0,1.5S0.7,0,1.5,0h10.9C13.3,0,14,0.7,14,1.5S13.3,3,12.5,3z"/>
	</g>
</g>
</svg>
