<?xml version="1.0" encoding="utf-8"?>
<!-- Generator: Adobe Illustrator 16.0.0, SVG Export Plug-In . SVG Version: 6.00 Build 0)  -->
<!DOCTYPE svg PUBLIC "-//W3C//DTD SVG 1.1//EN" "http://www.w3.org/Graphics/SVG/1.1/DTD/svg11.dtd">
<svg version="1.1" id="Layer_1" xmlns="http://www.w3.org/2000/svg" xmlns:xlink="http://www.w3.org/1999/xlink" x="0px" y="0px"
	 width="15.93px" height="9.306px" viewBox="0.035 0 15.93 9.306" enable-background="new 0.035 0 15.93 9.306"
	 xml:space="preserve">
<path fill="#E0610E" d="M15.572,0.394c-0.522-0.525-1.373-0.525-1.896,0L8.001,6.065L2.325,0.394c-0.524-0.522-1.374-0.525-1.897,0
	c-0.524,0.523-0.524,1.373,0,1.898l6.619,6.612C7.049,8.907,7.049,8.91,7.052,8.912c0.263,0.262,0.607,0.394,0.949,0.394l0,0
	c0.003,0,0.003,0,0.003,0c0.342,0,0.687-0.132,0.946-0.394C8.954,8.91,8.957,8.904,8.96,8.901l6.612-6.61
	C16.097,1.767,16.097,0.917,15.572,0.394z"/>
</svg>
